…
capm_df<-left_join(capm_df,marketret,by="date") %>%
  select(symbol.x,date,monthly.returns,marketret) %>%
  rename(symbol=symbol.x)

Next, I use tidyquant::tq_performance to evaluate each stock performance with CAPM.

capm_table<-capm_df %>%
  group_by(symbol) %>%
  tq_performance(Ra=monthly.returns,
                 Rb=marketret,
                 performance_fun=table.CAPM)

capm_table

## # A tibble: 30 x 13
## # Groups:   symbol [30]
##    symbol ActivePremium    Alpha AnnualizedAlpha  Beta `Beta-` `Beta+`
##    <chr>          <dbl>    <dbl>           <dbl> <dbl>   <dbl>   <dbl>
##  1 MMM          -0.0352 -2.30e-3         -0.0267 1.03    0.876   0.932
##  2 AXP          -0.0458 -4.10e-3         -0.0477 1.15    1.61    0.761
##  3 AMGN          0.0676  8.50e-3          0.107  0.788   0.360   0.821
##  4 AAPL          0.142   9.90e-3          0.126  1.22    0.614   1.23 
##  5 BA           -0.0095  2.00e-4          0.0022 1.22    2.59    0.587
##  6 CAT          -0.0515 -4.40e-3         -0.052  1.24    0.730   1.04 
##  7 CVX          -0.134  -1.16e-2         -0.131  1.21    1.20    1.13 
##  8 CSCO         -0.0008  1.00e-3          0.0127 1.04    0.770   0.909
##  9 KO           -0.0652  3.00e-4          0.0031 0.562   0.862   0.323
## 10 DOW          -0.125  -1.39e-2         -0.155  1.80    1.10    1.55 
## # ... with 20 more rows, and 6 more variables: Correlation <dbl>,
## #   `Correlationp-value` <dbl>, InformationRatio <dbl>, `R-squared` <dbl>,
## #   TrackingError <dbl>, TreynorRatio <dbl>

This table provides many other informative evaluating indicators such as Treynor Ratio. However, in this case, I only focus on Alpha and Beta.

capm_table %>%
  select(symbol,Alpha,Beta) %>%
  arrange(desc(Beta))

## # A tibble: 30 x 3
## # Groups:   symbol [30]
##    symbol    Alpha  Beta
##    <chr>     <dbl> <dbl>
##  1 DOW    -0.0139   1.80
##  2 GS     -0.0084   1.53
##  3 JPM    -0.00240  1.38
##  4 CRM     0.0065   1.36
##  5 CAT    -0.0044   1.24
##  6 BA      0.0002   1.22
##  7 AAPL    0.0099   1.22
##  8 CVX    -0.0116   1.21
##  9 DIS     0.0016   1.16
## 10 AXP    -0.0041   1.15
## # ... with 20 more rows

capm_table %>%
  select(symbol,Alpha,Beta) %>%
  arrange(desc(Alpha))

## # A tibble: 30 x 3
## # Groups:   symbol [30]
##    symbol  Alpha  Beta
##    <chr>   <dbl> <dbl>
##  1 UNH    0.0121 0.667
##  2 NKE    0.0119 0.707
##  3 V      0.0118 0.895
##  4 MSFT   0.0117 0.934
##  5 HD     0.0107 1.03 
##  6 AAPL   0.0099 1.22 
##  7 AMGN   0.0085 0.788
##  8 WMT    0.0078 0.355
##  9 MRK    0.0067 0.473
## 10 CRM    0.0065 1.36 
## # ... with 20 more rows
…
